%YAML 1.1
%TAG !u! tag:unity3d.com,2011:
--- !u!74 &7400000
AnimationClip:
  m_ObjectHideFlags: 0
  m_CorrespondingSourceObject: {fileID: 0}
  m_PrefabInternal: {fileID: 0}
  m_Name: SD_E_sequence Plan_bottom
  serializedVersion: 6
  m_Legacy: 0
  m_Compressed: 0
  m_UseHighQualityCurve: 1
  m_RotationCurves: []
  m_CompressedRotationCurves: []
  m_EulerCurves: []
  m_PositionCurves: []
  m_ScaleCurves: []
  m_FloatCurves: []
  m_PPtrCurves:
  - curve:
    - time: 0.06666667
      value: {fileID: 21300222, guid: 770e0bd966a7fa6438527296aa0db38c, type: 3}
    - time: 0.13333334
      value: {fileID: 21300224, guid: 770e0bd966a7fa6438527296aa0db38c, type: 3}
    - time: 0.2
      value: {fileID: 21300226, guid: 770e0bd966a7fa6438527296aa0db38c, type: 3}
    - time: 0.26666668
      value: {fileID: 21300228, guid: 770e0bd966a7fa6438527296aa0db38c, type: 3}
    - time: 0.33333334
      value: {fileID: 21300230, guid: 770e0bd966a7fa6438527296aa0db38c, type: 3}
    - time: 0.4
      value: {fileID: 21300232, guid: 770e0bd966a7fa6438527296aa0db38c, type: 3}
    - time: 0.46666667
      value: {fileID: 21300234, guid: 770e0bd966a7fa6438527296aa0db38c, type: 3}
    - time: 0.53333336
      value: {fileID: 21300236, guid: 770e0bd966a7fa6438527296aa0db38c, type: 3}
    - time: 0.6
      value: {fileID: 21300238, guid: 770e0bd966a7fa6438527296aa0db38c, type: 3}
    - time: 0.6666667
      value: {fileID: 21300240, guid: 770e0bd966a7fa6438527296aa0db38c, type: 3}
    - time: 0.73333335
      value: {fileID: 21300242, guid: 770e0bd966a7fa6438527296aa0db38c, type: 3}
    - time: 0.8
      value: {fileID: 21300244, guid: 770e0bd966a7fa6438527296aa0db38c, type: 3}
    - time: 0.8666667
      value: {fileID: 21300246, guid: 770e0bd966a7fa6438527296aa0db38c, type: 3}
    - time: 0.93333334
      value: {fileID: 21300248, guid: 770e0bd966a7fa6438527296aa0db38c, type: 3}
    - time: 1
      value: {fileID: 21300250, guid: 770e0bd966a7fa6438527296aa0db38c, type: 3}
    - time: 1.0666667
      value: {fileID: 21300252, guid: 770e0bd966a7fa6438527296aa0db38c, type: 3}
    - time: 1.1333333
      value: {fileID: 21300254, guid: 770e0bd966a7fa6438527296aa0db38c, type: 3}
    - time: 1.2
      value: {fileID: 21300256, guid: 770e0bd966a7fa6438527296aa0db38c, type: 3}
    - time: 1.2666667
      value: {fileID: 21300258, guid: 770e0bd966a7fa6438527296aa0db38c, type: 3}
    - time: 1.3333334
      value: {fileID: 21300260, guid: 770e0bd966a7fa6438527296aa0db38c, type: 3}
    - time: 1.4
      value: {fileID: 21300262, guid: 770e0bd966a7fa6438527296aa0db38c, type: 3}
    - time: 1.4666667
      value: {fileID: 21300264, guid: 770e0bd966a7fa6438527296aa0db38c, type: 3}
    - time: 1.5333333
      value: {fileID: 21300266, guid: 770e0bd966a7fa6438527296aa0db38c, type: 3}
    - time: 1.6
      value: {fileID: 21300268, guid: 770e0bd966a7fa6438527296aa0db38c, type: 3}
    - time: 1.6666666
      value: {fileID: 21300270, guid: 770e0bd966a7fa6438527296aa0db38c, type: 3}
    - time: 1.7333333
      value: {fileID: 21300272, guid: 770e0bd966a7fa6438527296aa0db38c, type: 3}
    - time: 1.8
      value: {fileID: 21300274, guid: 770e0bd966a7fa6438527296aa0db38c, type: 3}
    - time: 1.8666667
      value: {fileID: 21300276, guid: 770e0bd966a7fa6438527296aa0db38c, type: 3}
    - time: 1.9333333
      value: {fileID: 21300278, guid: 770e0bd966a7fa6438527296aa0db38c, type: 3}
    - time: 2
      value: {fileID: 21300280, guid: 770e0bd966a7fa6438527296aa0db38c, type: 3}
    - time: 2.0666666
      value: {fileID: 21300282, guid: 770e0bd966a7fa6438527296aa0db38c, type: 3}
    - time: 2.1333334
      value: {fileID: 21300284, guid: 770e0bd966a7fa6438527296aa0db38c, type: 3}
    attribute: m_Sprite
    path: 
    classID: 212
    script: {fileID: 0}
  m_SampleRate: 15
  m_WrapMode: 0
  m_Bounds:
    m_Center: {x: 0, y: 0, z: 0}
    m_Extent: {x: 0, y: 0, z: 0}
  m_ClipBindingConstant:
    genericBindings:
    - serializedVersion: 2
      path: 0
      attribute: 0
      script: {fileID: 0}
      typeID: 212
      customType: 23
      isPPtrCurve: 1
    pptrCurveMapping:
    - {fileID: 21300222, guid: 770e0bd966a7fa6438527296aa0db38c, type: 3}
    - {fileID: 21300224, guid: 770e0bd966a7fa6438527296aa0db38c, type: 3}
    - {fileID: 21300226, guid: 770e0bd966a7fa6438527296aa0db38c, type: 3}
    - {fileID: 21300228, guid: 770e0bd966a7fa6438527296aa0db38c, type: 3}
    - {fileID: 21300230, guid: 770e0bd966a7fa6438527296aa0db38c, type: 3}
    - {fileID: 21300232, guid: 770e0bd966a7fa6438527296aa0db38c, type: 3}
    - {fileID: 21300234, guid: 770e0bd966a7fa6438527296aa0db38c, type: 3}
    - {fileID: 21300236, guid: 770e0bd966a7fa6438527296aa0db38c, type: 3}
    - {fileID: 21300238, guid: 770e0bd966a7fa6438527296aa0db38c, type: 3}
    - {fileID: 21300240, guid: 770e0bd966a7fa6438527296aa0db38c, type: 3}
    - {fileID: 21300242, guid: 770e0bd966a7fa6438527296aa0db38c, type: 3}
    - {fileID: 21300244, guid: 770e0bd966a7fa6438527296aa0db38c, type: 3}
    - {fileID: 21300246, guid: 770e0bd966a7fa6438527296aa0db38c, type: 3}
    - {fileID: 21300248, guid: 770e0bd966a7fa6438527296aa0db38c, type: 3}
    - {fileID: 21300250, guid: 770e0bd966a7fa6438527296aa0db38c, type: 3}
    - {fileID: 21300252, guid: 770e0bd966a7fa6438527296aa0db38c, type: 3}
    - {fileID: 21300254, guid: 770e0bd966a7fa6438527296aa0db38c, type: 3}
    - {fileID: 21300256, guid: 770e0bd966a7fa6438527296aa0db38c, type: 3}
    - {fileID: 21300258, guid: 770e0bd966a7fa6438527296aa0db38c, type: 3}
    - {fileID: 21300260, guid: 770e0bd966a7fa6438527296aa0db38c, type: 3}
    - {fileID: 21300262, guid: 770e0bd966a7fa6438527296aa0db38c, type: 3}
    - {fileID: 21300264, guid: 770e0bd966a7fa6438527296aa0db38c, type: 3}
    - {fileID: 21300266, guid: 770e0bd966a7fa6438527296aa0db38c, type: 3}
    - {fileID: 21300268, guid: 770e0bd966a7fa6438527296aa0db38c, type: 3}
    - {fileID: 21300270, guid: 770e0bd966a7fa6438527296aa0db38c, type: 3}
    - {fileID: 21300272, guid: 770e0bd966a7fa6438527296aa0db38c, type: 3}
    - {fileID: 21300274, guid: 770e0bd966a7fa6438527296aa0db38c, type: 3}
    - {fileID: 21300276, guid: 770e0bd966a7fa6438527296aa0db38c, type: 3}
    - {fileID: 21300278, guid: 770e0bd966a7fa6438527296aa0db38c, type: 3}
    - {fileID: 21300280, guid: 770e0bd966a7fa6438527296aa0db38c, type: 3}
    - {fileID: 21300282, guid: 770e0bd966a7fa6438527296aa0db38c, type: 3}
    - {fileID: 21300284, guid: 770e0bd966a7fa6438527296aa0db38c, type: 3}
  m_AnimationClipSettings:
    serializedVersion: 2
    m_AdditiveReferencePoseClip: {fileID: 0}
    m_AdditiveReferencePoseTime: 0
    m_StartTime: 0
    m_StopTime: 2.2
    m_OrientationOffsetY: 0
    m_Level: 0
    m_CycleOffset: 0
    m_HasAdditiveReferencePose: 0
    m_LoopTime: 0
    m_LoopBlend: 0
    m_LoopBlendOrientation: 0
    m_LoopBlendPositionY: 0
    m_LoopBlendPositionXZ: 0
    m_KeepOriginalOrientation: 0
    m_KeepOriginalPositionY: 1
    m_KeepOriginalPositionXZ: 0
    m_HeightFromFeet: 0
    m_Mirror: 0
  m_EditorCurves: []
  m_EulerEditorCurves: []
  m_HasGenericRootTransform: 0
  m_HasMotionFloatCurves: 0
  m_GenerateMotionCurves: 0
  m_Events: []
